Non-Life Insurance - Final project
…
3.2 The construction of a (technical) tariff structure (Manca)

Firs lets build a Poisson GLM for numberof claims, so we are building frequency model. For frequency fitting is the best to use Poisson distribution or Negative Binomial distribution. We will built a GLM for number of claims as a function of a covariate gender, we will also include the log of exposure as an offset.

## # A tibble: 2 x 5
##   term        estimate std.error statistic      p.value
##   <chr>          <dbl>     <dbl>     <dbl>        <dbl>
## 1 (Intercept)  -1.91      0.0133   -143.   0           
## 2 sexMale      -0.0864    0.0157     -5.51 0.0000000351

## # A tibble: 163,657 x 9
##    nclaims sex    `(offset)` .fitted .resid .std.resid     .hat .sigma   .cooksd
##      <int> <fct>       <dbl>   <dbl>  <dbl>      <dbl>    <dbl>  <dbl>     <dbl>
##  1       0 Female      0     0.148   -0.545     -0.545  2.63e-5  0.742   1.95e-6
##  2       1 Female     -3.07  0.00691  2.82       2.82   1.23e-6  0.742   8.74e-5
##  3       0 Female     -0.909 0.0598  -0.346     -0.346  1.06e-5  0.742   3.17e-7
##  4       0 Female     -1.77  0.0252  -0.225     -0.225  4.47e-6  0.742   5.63e-8
##  5       0 Female      0     0.148   -0.545     -0.545  2.63e-5  0.742   1.95e-6
##  6       0 Female     -1.22  0.0439  -0.296     -0.296  7.79e-6  0.742   1.71e-7
##  7       0 Female      0     0.148   -0.545     -0.545  2.63e-5  0.742   1.95e-6
##  8       0 Female     -2.57  0.0114  -0.151     -0.151  2.02e-6  0.742   1.15e-8
##  9       0 Female      0     0.148   -0.545     -0.545  2.63e-5  0.742   1.95e-6
## 10       0 Female     -0.110 0.133   -0.516     -0.516  2.36e-5  0.742   1.57e-6
## # ... with 163,647 more rows
…
## # A tibble: 2 x 5
##   term        estimate std.error statistic p.value
##   <chr>          <dbl>     <dbl>     <dbl>   <dbl>
## 1 (Intercept)    8.06      0.187    43.0     0    
## 2 sexMale       -0.159     0.221    -0.720   0.472

## # A tibble: 18,345 x 10
##    .rownames amount sex    `(offset)` .fitted  .resid .std.resid     .hat .sigma
##    <chr>      <dbl> <fct>       <dbl>   <dbl>   <dbl>      <dbl>    <dbl>  <dbl>
##  1 2          156.  Female    -3.07      148.  0.0537    0.00402 0.000196   1.81
##  2 13        1426.  Female     0        3175. -0.706    -0.0528  0.000196   1.81
##  3 16        1576.  Female    -0.0448   3036. -0.591    -0.0442  0.000196   1.81
##  4 21        8885.  Female    -0.794    1435.  2.60      0.194   0.000196   1.81
##  5 23         620.  Female     0        3175. -1.29     -0.0963  0.000196   1.81
##  6 24         575.  Female    -1.53      687. -0.174    -0.0130  0.000196   1.81
##  7 28        1686.  Female    -0.128    2792. -0.466    -0.0348  0.000196   1.81
##  8 29         634.  Female     0        3175. -1.27     -0.0952  0.000196   1.81
##  9 30          65.5 Female    -0.958    1218. -1.99     -0.149   0.000196   1.81
## 10 32          74.3 Female     0        3175. -2.36     -0.176   0.000196   1.81
## # ... with 18,335 more rows, and 1 more variable: .cooksd <dbl>
…
